final_exam_shuna
…
for_e <- adjusted_time |>
  mutate(
    hours = hour(ny),
    minutes = minute(ny),
    time = paste0(hours, ":", minutes),
    time = hm(time)
  ) |>
  group_by(time) |>
  summarise(mean_trade = mean(volume)) |>
  distinct() |>
  print()

## # A tibble: 391 x 2
##    time      mean_trade
##    <Period>       <dbl>
##  1 9H 30M 0S       765.
##  2 9H 31M 0S       456.
##  3 9H 32M 0S       398.
##  4 9H 33M 0S       420.
##  5 9H 34M 0S       420.
##  6 9H 35M 0S       417.
##  7 9H 36M 0S       358.
##  8 9H 37M 0S       341.
##  9 9H 38M 0S       347.
## 10 9H 39M 0S       347.
## # ... with 381 more rows
…
Problem 3

countries <- read_excel(
  "API_SP.POP.TOTL_DS2_en_excel_v2_4019847.xls",
  skip = 2
) |>
  dplyr::select(
    "Country Name",
    "Country Code",
    pop = "2020"
  ) |>
  print()

## # A tibble: 266 x 3
##    `Country Name`              `Country Code`       pop
##    <chr>                       <chr>              <dbl>
##  1 Aruba                       ABW               106766
##  2 Africa Eastern and Southern AFE            677243299
##  3 Afghanistan                 AFG             38928341
##  4 Africa Western and Central  AFW            458803476
##  5 Angola                      AGO             32866268
##  6 Albania                     ALB              2837849
##  7 Andorra                     AND                77265
##  8 Arab World                  ARB            436080728
##  9 United Arab Emirates        ARE              9890400
## 10 Argentina                   ARG             45376763
## # ... with 256 more rows

b

medals <- read_csv("medals.csv") |> print()

## # A tibble: 204 x 3
##    country             code  medals
##    <chr>               <chr>  <dbl>
##  1 Afghanistan         AFG        0
##  2 Albania             ALB        0
##  3 Algeria             DZA        0
##  4 American Samoa      ASM        0
##  5 Andorra             AND        0
##  6 Angola              AGO        0
##  7 Antigua and Barbuda ATG        0
##  8 Argentina           ARG        3
##  9 Armenia             ARM        4
## 10 Aruba               ABW        0
## # ... with 194 more rows

data <- medals |>
  left_join(countries, by = c("code" = "Country Code")) |>
  dplyr::select(-"Country Name") |>
  mutate(medal_per_million = medals / pop * 1000000) |>
  select(-medals, -pop) |>
  print()

## # A tibble: 204 x 3
##    country             code  medal_per_million
##    <chr>               <chr>             <dbl>
##  1 Afghanistan         AFG              0     
##  2 Albania             ALB              0     
##  3 Algeria             DZA              0     
##  4 American Samoa      ASM              0     
##  5 Andorra             AND              0     
##  6 Angola              AGO              0     
##  7 Antigua and Barbuda ATG              0     
##  8 Argentina           ARG              0.0661
##  9 Armenia             ARM              1.35  
## 10 Aruba               ABW              0     
## # ... with 194 more rows
…
