lec11_exercises
…
## v ggplot2 3.3.5     v purrr   0.3.4
## v tibble  3.1.6     v dplyr   1.0.7
## v tidyr   1.2.0     v stringr 1.4.0
## v readr   2.1.2     v forcats 0.5.1

## -- Conflicts ------------------------------------------ tidyverse_conflicts() --
## x dplyr::filter() masks stats::filter()
## x dplyr::lag()    masks stats::lag()

Import the datav

meseals <- as_tibble(read.csv("measles_for_ggplot2.csv"))
meseals

## # A tibble: 3,876 x 3
##    state  year incidence
##    <chr> <int>     <dbl>
##  1 AL     1928     335. 
##  2 AL     1929     112. 
##  3 AL     1930     157  
##  4 AL     1931     337. 
##  5 AL     1932      10.2
##  6 AL     1933      65.2
##  7 AL     1934     590. 
##  8 AL     1935     265. 
##  9 AL     1936      20.8
## 10 AL     1937      22.5
## # ... with 3,866 more rows
…
